{
    "version": "0.3",
    "default_view": "EPSG:3995",
    "select": {
        "paths": {
            "All Instruments": ["MusicalInstrument", "Manufacturer"],
            "Guitars": ["Guitar", "Manufacturer"],
            "Violins": ["Violin", "Manufacturer"]
        }
    },
    "views": [{
        "id": "EPSG:3995",
        "name": "Sperical Mercator",
        "description": "EPSG:3857/WGS 84: Spherical Mercator",
        "zoom": 5,
        "center": {
            "lat": 44,
            "lng": 11
        },
        "tileLayer": {
            "url": "https://{s}.tile.openstreetmap.org/{z}/{x}/{y}.png",
            "options": {
                "attribution": "Tiles &copy; <a href='https://openstreetmap.org/copyright'>OpenStreetMap contributors</a>",
                "maxZoom": 13
            }
        },
        "graticule": {
            "type": "latlngGraticule",
            "options": {
                "showLabel": true,
                "dashArray": [5, 5],
                "zoomInterval": {
                    "latitude": [{
                        "start": 2,
                        "end": 2,
                        "interval": 20
                    }, {
                        "start": 3,
                        "end": 3,
                        "interval": 10
                    }, {
                        "start": 4,
                        "end": 6,
                        "interval": 5
                    }, {
                        "start": 7,
                        "end": 10,
                        "interval": 1
                    }, {
                        "start": 11,
                        "end": 20,
                        "interval": 1
                    }],
                    "longitude": [{
                        "start": 2,
                        "end": 2,
                        "interval": 20
                    }, {
                        "start": 3,
                        "end": 3,
                        "interval": 10
                    }, {
                        "start": 4,
                        "end": 6,
                        "interval": 5
                    }, {
                        "start": 7,
                        "end": 10,
                        "interval": 1
                    }, {
                        "start": 11,
                        "end": 20,
                        "interval": 1
                    }]
                }
            }
        }
    }]
}
