[
    {
        "description": "Find all instruments which were analyzed and whose analysis showed that their quality was at least {qual}.",
        "query": "FIND MusicalInstrument WHICH IS REFERENCED BY MusicalAnalysis WITH quality_factor >= \"{qual}\""
    }
]
